\contentsline {section}{\numberline {A}The Target Location Coordinates}{11}{appendix.A}
\contentsline {section}{\numberline {B}Code to perform Simulated Annealing}{12}{appendix.B}
\contentsline {subsection}{\numberline {B.1}Simulated Annealing Classes}{18}{subsection.B.1}
\contentsline {subsection}{\numberline {B.2}Logging Classes}{28}{subsection.B.2}
\contentsline {subsection}{\numberline {B.3}Testing Framework}{29}{subsection.B.3}
\contentsline {subsection}{\numberline {B.4}Route Found}{34}{subsection.B.4}
\contentsline {section}{\numberline {C}Script for Task 3}{35}{appendix.C}
\contentsline {subsection}{\numberline {C.1}New Route When Downing Site North Has Been Moved 20 Pixels to the Left }{36}{subsection.C.1}
