\relax 
\providecommand\hyper@newdestlabel[2]{}
\providecommand\HyperFirstAtBeginDocument{\AtBeginDocument}
\HyperFirstAtBeginDocument{\ifx\hyper@anchor\@undefined
\global\let\oldcontentsline\contentsline
\gdef\contentsline#1#2#3#4{\oldcontentsline{#1}{#2}{#3}}
\global\let\oldnewlabel\newlabel
\gdef\newlabel#1#2{\newlabelxx{#1}#2}
\gdef\newlabelxx#1#2#3#4#5#6{\oldnewlabel{#1}{{#2}{#3}}}
\AtEndDocument{\ifx\hyper@anchor\@undefined
\let\contentsline\oldcontentsline
\let\newlabel\oldnewlabel
\fi}
\fi}
\global\let\hyper@last\relax 
\gdef\HyperFirstAtBeginDocument#1{#1}
\providecommand\HyField@AuxAddToFields[1]{}
\providecommand\HyField@AuxAddToCoFields[2]{}
\citation{schneider}
\citation{csanyi}
\citation{press}
\citation{press}
\citation{schneider}
\citation{csanyi}
\citation{press}
\citation{schneider}
\@writefile{lof}{\contentsline {figure}{\numberline {1}{\ignorespaces The three main classes\relax }}{3}{figure.caption.1}}
\providecommand*\caption@xref[2]{\@setref\relax\@undefined{#1}}
\newlabel{fig_classDiagram}{{1}{3}{The three main classes\relax }{figure.caption.1}{}}
\@writefile{lof}{\contentsline {figure}{\numberline {2}{\ignorespaces Optimum Route Found When Varying Techniques\relax }}{4}{figure.caption.2}}
\newlabel{fig_route}{{2}{4}{Optimum Route Found When Varying Techniques\relax }{figure.caption.2}{}}
\@writefile{lof}{\contentsline {figure}{\numberline {3}{\ignorespaces Boxplots for Distances Found for Each of the Three Techniques\relax }}{5}{figure.caption.3}}
\newlabel{fig_boxTech}{{3}{5}{Boxplots for Distances Found for Each of the Three Techniques\relax }{figure.caption.3}{}}
\newlabel{fig_energy}{{4a}{5}{Energy (ie distance) versus Iterations (note this energy is in pixels)\relax }{figure.caption.4}{}}
\newlabel{sub@fig_energy}{{a}{5}{Energy (ie distance) versus Iterations (note this energy is in pixels)\relax }{figure.caption.4}{}}
\newlabel{fig_temp}{{4b}{5}{Temperature versus Iterations\relax }{figure.caption.4}{}}
\newlabel{sub@fig_temp}{{b}{5}{Temperature versus Iterations\relax }{figure.caption.4}{}}
\@writefile{lof}{\contentsline {figure}{\numberline {4}{\ignorespaces How energy and temperature changes with number of iterations\relax }}{5}{figure.caption.4}}
\newlabel{fig_10}{{5a}{6}{Temperature Takes 10\% of Previous Value Each Iteration\relax }{figure.caption.5}{}}
\newlabel{sub@fig_10}{{a}{6}{Temperature Takes 10\% of Previous Value Each Iteration\relax }{figure.caption.5}{}}
\newlabel{fig-50}{{5b}{6}{Temperature Takes 50\% of Previous Value Each Iteration\relax }{figure.caption.5}{}}
\newlabel{sub@fig-50}{{b}{6}{Temperature Takes 50\% of Previous Value Each Iteration\relax }{figure.caption.5}{}}
\newlabel{Fig_95}{{5c}{6}{Temperature Takes 95\% of Previous Value Each Iteration\relax }{figure.caption.5}{}}
\newlabel{sub@Fig_95}{{c}{6}{Temperature Takes 95\% of Previous Value Each Iteration\relax }{figure.caption.5}{}}
\@writefile{lof}{\contentsline {figure}{\numberline {5}{\ignorespaces How rate of change of temperature reduction affects convergence. (note different scales on x axis)\relax }}{6}{figure.caption.5}}
\newlabel{fig_convPat}{{5}{6}{How rate of change of temperature reduction affects convergence. (note different scales on x axis)\relax }{figure.caption.5}{}}
\@writefile{lof}{\contentsline {figure}{\numberline {6}{\ignorespaces Boxplots for Different Temperature Reduction Schemes. Percentage of Previous Value that New Temperature takes on each Iteration Shown on x Axis\relax }}{6}{figure.caption.6}}
\newlabel{fig_boxTemp}{{6}{6}{Boxplots for Different Temperature Reduction Schemes. Percentage of Previous Value that New Temperature takes on each Iteration Shown on x Axis\relax }{figure.caption.6}{}}
\newlabel{fig_2sd}{{7a}{7}{Distribution Out When Input Error SD=2pixels\relax }{figure.caption.7}{}}
\newlabel{sub@fig_2sd}{{a}{7}{Distribution Out When Input Error SD=2pixels\relax }{figure.caption.7}{}}
\newlabel{fig_4sd}{{7b}{7}{Distribution Out When Input Error SD=4pixels\relax }{figure.caption.7}{}}
\newlabel{sub@fig_4sd}{{b}{7}{Distribution Out When Input Error SD=4pixels\relax }{figure.caption.7}{}}
\@writefile{lof}{\contentsline {figure}{\numberline {7}{\ignorespaces How standard deviation (SD) of error on input affects distribution at output (Note different x axis scales)\relax }}{7}{figure.caption.7}}
\newlabel{fig_sdOut}{{7}{7}{How standard deviation (SD) of error on input affects distribution at output (Note different x axis scales)\relax }{figure.caption.7}{}}
\@writefile{lof}{\contentsline {figure}{\numberline {8}{\ignorespaces Boxplots for Different Standard Deviations for Pertubations (Orange line shows value found when no pertubations)\relax }}{8}{figure.caption.8}}
\newlabel{fig_boxPert}{{8}{8}{Boxplots for Different Standard Deviations for Pertubations (Orange line shows value found when no pertubations)\relax }{figure.caption.8}{}}
\@writefile{lof}{\contentsline {figure}{\numberline {9}{\ignorespaces Optimum Route Found After Perturbing Downing Site North's x Coordinate (its new position is shown in orange)\relax }}{8}{figure.caption.9}}
\newlabel{fig_route2}{{9}{8}{Optimum Route Found After Perturbing Downing Site North's x Coordinate (its new position is shown in orange)\relax }{figure.caption.9}{}}
\citation{schneider}
\citation{press}
\bibcite{schneider}{1}
\bibcite{csanyi}{2}
\bibcite{press}{3}
\@writefile{toc}{\contentsline {section}{\numberline {A}The Target Location Coordinates}{11}{appendix.A}}
\newlabel{app_target_locations}{{A}{11}{The Target Location Coordinates}{appendix.A}{}}
\@writefile{lot}{\contentsline {table}{\numberline {1}{\ignorespaces Coordinates of Target Points (note that these are in pixel values and the values increase from the top left hand side of the picture). The Engineering Department was defined as the origin.\relax }}{11}{table.caption.10}}
\newlabel{tab_coordinates}{{1}{11}{Coordinates of Target Points (note that these are in pixel values and the values increase from the top left hand side of the picture). The Engineering Department was defined as the origin.\relax }{table.caption.10}{}}
\citation{csanyi}
\citation{press}
\@writefile{lot}{\contentsline {table}{\numberline {2}{\ignorespaces Coordinates of Target Points in m. Origin is the Engineering Department, but the axis have changed since the last table, so that y points up and x to the right.\relax }}{12}{table.caption.11}}
\newlabel{tab_coordinates_in_m}{{2}{12}{Coordinates of Target Points in m. Origin is the Engineering Department, but the axis have changed since the last table, so that y points up and x to the right.\relax }{table.caption.11}{}}
\@writefile{toc}{\contentsline {section}{\numberline {B}Code to perform Simulated Annealing}{12}{appendix.B}}
\newlabel{app_code}{{B}{12}{Code to perform Simulated Annealing}{appendix.B}{}}
\@writefile{lof}{\contentsline {figure}{\numberline {10}{\ignorespaces Class Diagram\relax }}{14}{figure.caption.12}}
\newlabel{fig_classDiag}{{10}{14}{Class Diagram\relax }{figure.caption.12}{}}
\@writefile{lol}{\contentsline {lstlisting}{\numberline {1}RunSimAnneal Class}{15}{lstlisting.1}}
\@writefile{toc}{\contentsline {subsection}{\numberline {B.1}Simulated Annealing Classes}{18}{subsection.B.1}}
\@writefile{lol}{\contentsline {lstlisting}{\numberline {2}CoordPt Class}{18}{lstlisting.2}}
\@writefile{lol}{\contentsline {lstlisting}{\numberline {3}Route Class}{19}{lstlisting.3}}
\newlabel{simAnnealClass}{{4}{22}{SimAnneal Class}{lstlisting.4}{}}
\@writefile{lol}{\contentsline {lstlisting}{\numberline {4}SimAnneal Class}{22}{lstlisting.4}}
\@writefile{toc}{\contentsline {subsection}{\numberline {B.2}Logging Classes}{28}{subsection.B.2}}
\newlabel{logClass}{{5}{28}{LogClass Class}{lstlisting.5}{}}
\@writefile{lol}{\contentsline {lstlisting}{\numberline {5}LogClass Class}{28}{lstlisting.5}}
\newlabel{tripletClass}{{6}{29}{Triplet Class}{lstlisting.6}{}}
\@writefile{lol}{\contentsline {lstlisting}{\numberline {6}Triplet Class}{29}{lstlisting.6}}
\@writefile{toc}{\contentsline {subsection}{\numberline {B.3}Testing Framework}{29}{subsection.B.3}}
\@writefile{lol}{\contentsline {lstlisting}{\numberline {7}TestRoute Class}{29}{lstlisting.7}}
\@writefile{lol}{\contentsline {lstlisting}{\numberline {8}TestSimAnneal Class}{32}{lstlisting.8}}
\@writefile{toc}{\contentsline {subsection}{\numberline {B.4}Route Found}{34}{subsection.B.4}}
\newlabel{app_route}{{B.4}{34}{Route Found}{subsection.B.4}{}}
\@writefile{toc}{\contentsline {section}{\numberline {C}Script for Task 3}{35}{appendix.C}}
\newlabel{app_3}{{C}{35}{Script for Task 3}{appendix.C}{}}
\@writefile{lol}{\contentsline {lstlisting}{\numberline {9}MATLAB Script for Running Program Multiple Times}{35}{lstlisting.9}}
\@writefile{toc}{\contentsline {subsection}{\numberline {C.1}New Route When Downing Site North Has Been Moved 20 Pixels to the Left }{36}{subsection.C.1}}
\newlabel{app_newRoute}{{C.1}{36}{New Route When Downing Site North Has Been Moved 20 Pixels to the Left }{subsection.C.1}{}}
