0,4804.790801003542
1,5073.112098427352
2,4764.02392004166
3,4929.165837164618
4,4819.110418530827
5,5058.920238995147
6,4898.298658803753
7,4955.953627573904
8,4861.549437868315
9,4811.755796478598
10,4774.527182089601
11,4921.773504607242
12,4804.790801003542
13,5090.492968369384
14,4849.573132728949
15,5032.976506577409
16,4843.341733246127
17,4898.298658803753
18,4798.532445022029
19,5103.552967233713
20,5090.492968369384
21,4910.362150480069
22,4933.749809746608
